54297-09491-01213-08232-64710
51712-08469-30274-49022-62500
74925-36810-80685-21712-01288
82729-14355-72407-86501-74769
08170-19828-86919-80148-71253
92659-73905-73881-87824-51788
53372-49173-08165-35445-26217
13453-55092-81012-72023-32585
